EESchema Schematic File Version 4
EELAYER 26 0
EELAYER END
$Descr A4 11693 8268
encoding utf-8
Sheet 1 1
Title ""
Date ""
Rev ""
Comp ""
Comment1 ""
Comment2 ""
Comment3 ""
Comment4 ""
$EndDescr
Wire Wire Line
	5900 3900 4500 3900
Wire Wire Line
	4500 3900 4500 3600
Wire Wire Line
	5900 4000 3200 4000
Wire Wire Line
	3200 4000 3200 3600
Wire Wire Line
	3200 3200 3200 3100
Wire Wire Line
	4500 3200 4500 3100
Wire Wire Line
	7300 3700 7700 3700
Wire Wire Line
	7700 3700 7700 3600
Wire Wire Line
	7700 3200 7700 3100
Wire Wire Line
	5900 4200 5700 4200
Wire Wire Line
	5700 4200 5700 5300
Text Label 5900 4200 0    10   ~ 0
GND
Wire Wire Line
	2500 3400 2500 5300
Text Label 2500 3400 0    10   ~ 0
GND
Wire Wire Line
	8700 4500 8700 5300
Text Label 8700 4500 0    10   ~ 0
GND
Wire Wire Line
	8000 4700 8000 5300
Text Label 8000 4700 0    10   ~ 0
GND
Wire Wire Line
	2000 3100 2200 3100
Wire Wire Line
	2200 3100 2200 5300
Text Label 2000 3100 0    10   ~ 0
GND
Wire Wire Line
	4400 5200 4400 5300
Text Label 4400 5200 0    10   ~ 0
GND
Wire Wire Line
	3200 4700 3200 5300
Text Label 3200 4700 0    10   ~ 0
GND
Wire Wire Line
	9500 3800 9200 3800
Wire Wire Line
	9200 3600 9200 3800
Wire Wire Line
	9200 5300 9200 3800
Connection ~ 9200 3800
Text Label 9500 3800 0    10   ~ 0
GND
Wire Wire Line
	5900 3800 5800 3800
Wire Wire Line
	5800 3800 5800 3700
Wire Wire Line
	5800 3700 5900 3700
Wire Wire Line
	5800 3700 5800 2700
Wire Wire Line
	5800 2700 4500 2700
Wire Wire Line
	4500 2700 3200 2700
Wire Wire Line
	3200 2700 2500 2700
Wire Wire Line
	2500 2700 2000 2700
Wire Wire Line
	2500 3100 2500 2700
Wire Wire Line
	3200 2800 3200 2700
Wire Wire Line
	4500 2800 4500 2700
Wire Wire Line
	7700 2800 7700 2700
Wire Wire Line
	7700 2700 5800 2700
Connection ~ 5800 3700
Connection ~ 2500 2700
Connection ~ 3200 2700
Connection ~ 4500 2700
Connection ~ 5800 2700
Wire Wire Line
	7400 4200 7300 4200
Wire Wire Line
	7800 4200 8000 4200
Wire Wire Line
	8000 4200 8000 4300
Wire Wire Line
	8000 4200 8200 4200
Connection ~ 8000 4200
Wire Wire Line
	8700 3900 8700 4200
Wire Wire Line
	7400 3900 8700 3900
Wire Wire Line
	7300 3900 7400 3900
Wire Wire Line
	7400 3900 7400 4000
Wire Wire Line
	7400 4000 7300 4000
Wire Wire Line
	9500 3900 9300 3900
Wire Wire Line
	9300 3600 9300 3900
Wire Wire Line
	8700 3900 9300 3900
Connection ~ 7400 3900
Connection ~ 8700 3900
Connection ~ 9300 3900
Wire Wire Line
	4400 4800 4400 4700
Wire Wire Line
	5900 4100 4400 4100
Wire Wire Line
	4400 4100 4400 4300
Wire Wire Line
	4400 4100 3200 4100
Wire Wire Line
	3200 4100 3200 4300
Connection ~ 4400 4100
$Comp
L USB-uLiPo-eagle-import:MCP73833 U1
U 1 0 6D0FA6BA
P 6600 4000
F 0 "U1" H 6100 4500 59  0000 L BNN
F 1 "MCP73833-AMI/UN" H 6100 3600 59  0000 L BNN
F 2 "USB-uLiPo:MSOP10" H 6600 4000 50  0001 C CNN
F 3 "" H 6600 4000 50  0001 C CNN
	1    6600 4000
	1    0    0    -1  
$EndComp
$Comp
L USB-uLiPo-eagle-import:LED0603DWS GR1
U 1 0 36018D77
P 3200 2900
F 0 "GR1" V 3150 2830 59  0000 R TNN
F 1 "0603/GREEN" V 3000 2850 59  0000 R TNN
F 2 "USB-uLiPo:LED-0603" H 3200 2900 50  0001 C CNN
F 3 "" H 3200 2900 50  0001 C CNN
	1    3200 2900
	0    -1   -1   0   
$EndComp
$Comp
L USB-uLiPo-eagle-import:LED0603DWS YL1
U 1 0 36FCC34D
P 4500 2900
F 0 "YL1" V 4450 2810 59  0000 R TNN
F 1 "0603/YELLOW" V 4300 2820 59  0000 R TNN
F 2 "USB-uLiPo:LED-0603" H 4500 2900 50  0001 C CNN
F 3 "" H 4500 2900 50  0001 C CNN
	1    4500 2900
	0    -1   -1   0   
$EndComp
$Comp
L USB-uLiPo-eagle-import:LED0603DWS RED1
U 1 0 B2F9FD46
P 7700 2900
F 0 "RED1" V 7650 2800 59  0000 R TNN
F 1 "0603/RED" V 7550 2800 59  0000 R TNN
F 2 "USB-uLiPo:LED-0603" H 7700 2900 50  0001 C CNN
F 3 "" H 7700 2900 50  0001 C CNN
	1    7700 2900
	0    -1   -1   0   
$EndComp
$Comp
L USB-uLiPo-eagle-import:R-EU_R0603_5MIL R1
U 1 0 66F51B2C
P 3200 3400
F 0 "R1" V 3219 3350 59  0000 R TNN
F 1 "2.7k" V 3120 3350 59  0000 R TNN
F 2 "USB-uLiPo:R0603_5MIL" H 3200 3400 50  0001 C CNN
F 3 "" H 3200 3400 50  0001 C CNN
	1    3200 3400
	0    -1   -1   0   
$EndComp
$Comp
L USB-uLiPo-eagle-import:R-EU_R0603_5MIL R2
U 1 0 B7CDFC91
P 4500 3400
F 0 "R2" V 4539 3350 59  0000 R TNN
F 1 "2.7k" V 4410 3350 59  0000 R TNN
F 2 "USB-uLiPo:R0603_5MIL" H 4500 3400 50  0001 C CNN
F 3 "" H 4500 3400 50  0001 C CNN
	1    4500 3400
	0    -1   -1   0   
$EndComp
$Comp
L USB-uLiPo-eagle-import:R-EU_R0603_5MIL R3
U 1 0 9299F162
P 7700 3400
F 0 "R3" V 7719 3320 59  0000 R TNN
F 1 "2.7k" V 7630 3320 59  0000 R TNN
F 2 "USB-uLiPo:R0603_5MIL" H 7700 3400 50  0001 C CNN
F 3 "" H 7700 3400 50  0001 C CNN
	1    7700 3400
	0    -1   -1   0   
$EndComp
$Comp
L USB-uLiPo-eagle-import:C-EUC0805_5MIL C1
U 1 0 F8CF57B1
P 2500 3200
F 0 "C1" H 2560 3215 59  0000 L BNN
F 1 "10uF/6.3V/0805" V 2545 3110 59  0000 R TNN
F 2 "USB-uLiPo:C0805_5MIL" H 2500 3200 50  0001 C CNN
F 3 "" H 2500 3200 50  0001 C CNN
	1    2500 3200
	1    0    0    -1  
$EndComp
$Comp
L USB-uLiPo-eagle-import:C-EUC0805_5MIL C2
U 1 0 9C4BE501
P 8700 4300
F 0 "C2" H 8740 4315 59  0000 L BNN
F 1 "10uF/6.3V/0805" V 8765 4180 59  0000 R TNN
F 2 "USB-uLiPo:C0805_5MIL" H 8700 4300 50  0001 C CNN
F 3 "" H 8700 4300 50  0001 C CNN
	1    8700 4300
	1    0    0    -1  
$EndComp
$Comp
L USB-uLiPo-eagle-import:GND #GND01
U 1 0 8DA2BB24
P 8700 5400
F 0 "#GND01" H 8700 5400 50  0001 C CNN
F 1 "GND" H 8600 5300 59  0000 L BNN
F 2 "" H 8700 5400 50  0001 C CNN
F 3 "" H 8700 5400 50  0001 C CNN
	1    8700 5400
	1    0    0    -1  
$EndComp
$Comp
L USB-uLiPo-eagle-import:GND #GND02
U 1 0 4877C9E2
P 5700 5400
F 0 "#GND02" H 5700 5400 50  0001 C CNN
F 1 "GND" H 5600 5300 59  0000 L BNN
F 2 "" H 5700 5400 50  0001 C CNN
F 3 "" H 5700 5400 50  0001 C CNN
	1    5700 5400
	1    0    0    -1  
$EndComp
$Comp
L USB-uLiPo-eagle-import:GND #GND03
U 1 0 21137572
P 2500 5400
F 0 "#GND03" H 2500 5400 50  0001 C CNN
F 1 "GND" H 2400 5300 59  0000 L BNN
F 2 "" H 2500 5400 50  0001 C CNN
F 3 "" H 2500 5400 50  0001 C CNN
	1    2500 5400
	1    0    0    -1  
$EndComp
$Comp
L USB-uLiPo-eagle-import:GND #GND04
U 1 0 12C122FD
P 8000 5400
F 0 "#GND04" H 8000 5400 50  0001 C CNN
F 1 "GND" H 7900 5300 59  0000 L BNN
F 2 "" H 8000 5400 50  0001 C CNN
F 3 "" H 8000 5400 50  0001 C CNN
	1    8000 5400
	1    0    0    -1  
$EndComp
$Comp
L USB-uLiPo-eagle-import:R-EU_R0603_5MIL R4
U 1 0 0C033D0A
P 7600 4200
F 0 "R4" H 7650 4141 59  0000 R TNN
F 1 "1.5k" H 7690 4320 59  0000 R TNN
F 2 "USB-uLiPo:R0603_5MIL" H 7600 4200 50  0001 C CNN
F 3 "" H 7600 4200 50  0001 C CNN
	1    7600 4200
	-1   0    0    1   
$EndComp
$Comp
L USB-uLiPo-eagle-import:R-EU_R0603_5MIL R5
U 1 0 C1449B59
P 8000 4500
F 0 "R5" V 7979 4430 59  0000 R TNN
F 1 "10k" V 7880 4430 59  0000 R TNN
F 2 "USB-uLiPo:R0603_5MIL" H 8000 4500 50  0001 C CNN
F 3 "" H 8000 4500 50  0001 C CNN
	1    8000 4500
	0    -1   -1   0   
$EndComp
$Comp
L USB-uLiPo-eagle-import:MINI_USB9 USB1
U 1 0 366E903A
P 1800 2850
F 0 "USB1" H 1850 3350 59  0000 R TNN
F 1 "USB-MINI" H 1850 3200 59  0000 R TNN
F 2 "USB-uLiPo:USB_MINI_9PIN" H 1800 2850 50  0001 C CNN
F 3 "" H 1800 2850 50  0001 C CNN
	1    1800 2850
	-1   0    0    -1  
$EndComp
$Comp
L USB-uLiPo-eagle-import:CON2DW02R BAT1
U 1 0 3FD41DE5
P 9700 3900
F 0 "BAT1" H 9520 3850 59  0000 R TNN
F 1 "DW02R" H 9520 3950 59  0000 R TNN
F 2 "USB-uLiPo:DW02R" H 9700 3900 50  0001 C CNN
F 3 "" H 9700 3900 50  0001 C CNN
	1    9700 3900
	-1   0    0    1   
$EndComp
$Comp
L USB-uLiPo-eagle-import:CON2DW02R PCB1
U 1 0 BAC58AAC
P 9300 3400
F 0 "PCB1" V 9100 3180 59  0000 L BNN
F 1 "DW02R" V 9180 3180 59  0000 L BNN
F 2 "USB-uLiPo:DW02R" H 9300 3400 50  0001 C CNN
F 3 "" H 9300 3400 50  0001 C CNN
	1    9300 3400
	0    1    1    0   
$EndComp
$Comp
L USB-uLiPo-eagle-import:GND #GND05
U 1 0 5B6A58CA
P 9200 5400
F 0 "#GND05" H 9200 5400 50  0001 C CNN
F 1 "GND" H 9100 5300 59  0000 L BNN
F 2 "" H 9200 5400 50  0001 C CNN
F 3 "" H 9200 5400 50  0001 C CNN
	1    9200 5400
	1    0    0    -1  
$EndComp
$Comp
L USB-uLiPo-eagle-import:GND #GND06
U 1 0 F6847280
P 2200 5400
F 0 "#GND06" H 2200 5400 50  0001 C CNN
F 1 "GND" H 2100 5300 59  0000 L BNN
F 2 "" H 2200 5400 50  0001 C CNN
F 3 "" H 2200 5400 50  0001 C CNN
	1    2200 5400
	1    0    0    -1  
$EndComp
$Comp
L USB-uLiPo-eagle-import:R-EU_R0603_5MIL R6
U 1 0 1047F363
P 3200 4500
F 0 "R6" V 3209 4440 59  0000 R TNN
F 1 "10k" V 3120 4440 59  0000 R TNN
F 2 "USB-uLiPo:R0603_5MIL" H 3200 4500 50  0001 C CNN
F 3 "" H 3200 4500 50  0001 C CNN
	1    3200 4500
	0    -1   -1   0   
$EndComp
$Comp
L USB-uLiPo-eagle-import:R-EU_R0603_5MIL R7
U 1 0 D4E83657
P 4400 4500
F 0 "R7" V 4399 4440 59  0000 R TNN
F 1 "2.7k" V 4290 4440 59  0000 R TNN
F 2 "USB-uLiPo:R0603_5MIL" H 4400 4500 50  0001 C CNN
F 3 "" H 4400 4500 50  0001 C CNN
	1    4400 4500
	0    -1   -1   0   
$EndComp
$Comp
L USB-uLiPo-eagle-import:GND #GND07
U 1 0 C2693486
P 3200 5400
F 0 "#GND07" H 3200 5400 50  0001 C CNN
F 1 "GND" H 3100 5300 59  0000 L BNN
F 2 "" H 3200 5400 50  0001 C CNN
F 3 "" H 3200 5400 50  0001 C CNN
	1    3200 5400
	1    0    0    -1  
$EndComp
$Comp
L USB-uLiPo-eagle-import:GND #GND08
U 1 0 E3161DBF
P 4400 5400
F 0 "#GND08" H 4400 5400 50  0001 C CNN
F 1 "GND" H 4300 5300 59  0000 L BNN
F 2 "" H 4400 5400 50  0001 C CNN
F 3 "" H 4400 5400 50  0001 C CNN
	1    4400 5400
	1    0    0    -1  
$EndComp
$Comp
L USB-uLiPo-eagle-import:SJSJ-CLOSE 470MA_E1
U 1 0 CBCE747A
P 4400 5000
F 0 "470MA_E1" H 4300 5100 59  0001 L BNN
F 1 "close" V 4330 4900 59  0000 R TNN
F 2 "USB-uLiPo:SJ-CLOSE" H 4400 5000 50  0001 C CNN
F 3 "" H 4400 5000 50  0001 C CNN
	1    4400 5000
	0    -1   -1   0   
$EndComp
$Comp
L USB-uLiPo-eagle-import:TESTPAD THERM1
U 1 0 8993C1AB
P 8300 4200
F 0 "THERM1" V 8425 4060 59  0000 L BNN
F 1 "TESTPAD" H 8300 4200 50  0001 C CNN
F 2 "USB-uLiPo:TESTPAD34_60" H 8300 4200 50  0001 C CNN
F 3 "" H 8300 4200 50  0001 C CNN
	1    8300 4200
	0    -1   -1   0   
$EndComp
Wire Notes Line
	4400 4975 4400 5025
Text Notes 4700 4400 0    59   ~ 0
100mA->10k
Text Notes 4700 4500 0    59   ~ 0
470mA->10k||2.7k
Text Notes 4500 5000 0    59   ~ 0
470mA_E
Text Notes 6100 4800 0    85   ~ 0
LED DESCRIPTION:
Text Notes 6100 5200 0    85   ~ 0
GREEN - COMPLETE
Text Notes 6100 5000 0    85   ~ 0
YELLOW - CHARGING
Text Notes 6100 5400 0    85   ~ 0
RED - POWER GOOD
Text Notes 1500 5800 0    73   ~ 0
This hardware design by Olimex LTD is licensed under a Creative Commons Attribution-ShareAlike 3.0 Unported License.
Text Notes 3200 2600 0    73   ~ 0
USB-uLiPo_rev_B, OLIMEX LTD, BULGARIA, https://www.olimex.com
$EndSCHEMATC
