(module LED-0603 (layer F.Cu) (tedit 0)
  (fp_text reference RED (at -2.54 -1.905 -270) (layer F.SilkS)
    (effects (font (size 0.84455 0.84455) (thickness 0.16891)) (justify right top))
  )
  (fp_text value 0603/RED (at -2.54 2.54 -180) (layer F.Fab)
    (effects (font (size 1.2065 1.2065) (thickness 0.2413)) (justify right top))
  )
  (fp_line (start -0.432 0.356) (end 0.432 0.356) (layer F.Fab) (width 0.1524))
  (fp_line (start 0.432 -0.356) (end -0.432 -0.356) (layer F.Fab) (width 0.1524))
  (fp_line (start -1.6 -0.729) (end 1.6 -0.729) (layer Dwgs.User) (width 0.0508))
  (fp_line (start 1.6 -0.729) (end 1.6 0.729) (layer Dwgs.User) (width 0.0508))
  (fp_line (start 1.6 0.729) (end -1.6 0.729) (layer Dwgs.User) (width 0.0508))
  (fp_line (start -1.6 0.729) (end -1.6 -0.729) (layer Dwgs.User) (width 0.0508))
  (fp_line (start -1.651 -0.635) (end -1.651 0.635) (layer F.SilkS) (width 0.254))
  (fp_line (start 0.381 0.762) (end 1.651 0.762) (layer F.SilkS) (width 0.254))
  (fp_line (start 1.651 0.762) (end 1.651 -0.762) (layer F.SilkS) (width 0.254))
  (fp_line (start 1.651 -0.762) (end 0.381 -0.762) (layer F.SilkS) (width 0.254))
  (fp_line (start -0.635 -1.4986) (end -0.0762 -0.9398) (layer F.SilkS) (width 0.2032))
  (fp_line (start -0.635 -1.4986) (end -0.4572 -1.143) (layer F.SilkS) (width 0.2032))
  (fp_line (start -0.635 -1.4986) (end -0.2794 -1.3208) (layer F.SilkS) (width 0.2032))
  (fp_line (start 0 -1.4986) (end 0.5588 -0.9398) (layer F.SilkS) (width 0.2032))
  (fp_line (start 0 -1.4986) (end 0.1778 -1.143) (layer F.SilkS) (width 0.2032))
  (fp_line (start 0 -1.4986) (end 0.3556 -1.3208) (layer F.SilkS) (width 0.2032))
  (fp_line (start -0.381 -0.762) (end -1.524 -0.762) (layer F.SilkS) (width 0.254))
  (fp_line (start -1.524 -0.762) (end -1.651 -0.635) (layer F.SilkS) (width 0.254))
  (fp_line (start -1.651 -0.635) (end -1.778 -0.508) (layer F.SilkS) (width 0.254))
  (fp_line (start -1.778 0.508) (end -1.651 0.635) (layer F.SilkS) (width 0.254))
  (fp_line (start -1.651 0.635) (end -1.524 0.762) (layer F.SilkS) (width 0.254))
  (fp_line (start -1.524 0.762) (end -0.381 0.762) (layer F.SilkS) (width 0.254))
  (fp_line (start -1.524 -0.762) (end -1.524 0.762) (layer F.SilkS) (width 0.254))
  (fp_line (start -1.778 -0.508) (end -1.778 0.508) (layer F.SilkS) (width 0.254))
  (fp_line (start -0.254 -0.381) (end -0.254 0) (layer F.SilkS) (width 0.2032))
  (fp_line (start -0.254 0) (end -0.254 0.381) (layer F.SilkS) (width 0.2032))
  (fp_line (start -0.254 0) (end 0.254 -0.381) (layer F.SilkS) (width 0.2032))
  (fp_line (start 0.254 -0.381) (end 0.254 0.381) (layer F.SilkS) (width 0.2032))
  (fp_line (start 0.254 0.381) (end -0.254 0) (layer F.SilkS) (width 0.2032))
  (fp_line (start -0.127 0) (end -0.508 0) (layer F.Fab) (width 0.127))
  (fp_line (start -0.254 -0.7366) (end -0.0762 -0.5588) (layer F.Fab) (width 0.0508))
  (fp_line (start -0.0508 -0.7366) (end 0.127 -0.5588) (layer F.Fab) (width 0.0508))
  (fp_line (start -0.254 -0.7366) (end -0.2032 -0.635) (layer F.Fab) (width 0.0508))
  (fp_line (start -0.254 -0.7366) (end -0.1524 -0.6858) (layer F.Fab) (width 0.0508))
  (fp_line (start -0.0508 -0.7366) (end 0 -0.635) (layer F.Fab) (width 0.0508))
  (fp_line (start -0.0508 -0.7366) (end 0.0508 -0.6858) (layer F.Fab) (width 0.0508))
  (fp_line (start -0.127 0) (end 0.127 -0.127) (layer F.Fab) (width 0.127))
  (fp_line (start 0.127 -0.127) (end 0.127 0) (layer F.Fab) (width 0.127))
  (fp_line (start 0.127 0) (end 0.127 0.127) (layer F.Fab) (width 0.127))
  (fp_line (start 0.127 0.127) (end -0.127 0) (layer F.Fab) (width 0.127))
  (fp_line (start -0.127 0) (end -0.127 -0.127) (layer F.Fab) (width 0.127))
  (fp_line (start -0.127 0) (end -0.127 0.127) (layer F.Fab) (width 0.127))
  (fp_line (start 0.127 0) (end 0.635 0) (layer F.Fab) (width 0.127))
  (fp_poly (pts (xy 0.4318 0.4318) (xy 0.8382 0.4318) (xy 0.8382 -0.4318) (xy 0.4318 -0.4318)) (layer F.Fab) (width 0))
  (fp_poly (pts (xy -0.8382 0.4318) (xy -0.4318 0.4318) (xy -0.4318 -0.4318) (xy -0.8382 -0.4318)) (layer F.Fab) (width 0))
  (fp_poly (pts (xy -0.1999 0.4001) (xy 0.1999 0.4001) (xy 0.1999 -0.4001) (xy -0.1999 -0.4001)) (layer F.Adhes) (width 0))
  (pad C smd rect (at -0.889 0) (size 1.016 1.016) (layers F.Cu F.Paste F.Mask)
    (solder_mask_margin 0.1016))
  (pad A smd rect (at 0.889 0) (size 1.016 1.016) (layers F.Cu F.Paste F.Mask)
    (solder_mask_margin 0.1016))
)
