(module MSOP10 (layer F.Cu) (tedit 0)
  (fp_text reference U1 (at -2.65 -2.05) (layer F.SilkS)
    (effects (font (size 0.84455 0.84455) (thickness 0.16891)) (justify right top))
  )
  (fp_text value MCP73833-AMI/UN (at -2.75 2.95) (layer F.Fab)
    (effects (font (size 1.2065 1.2065) (thickness 0.2413)) (justify left bottom))
  )
  (fp_line (start -1.514 1.484) (end 1.534 1.484) (layer F.SilkS) (width 0.127))
  (fp_line (start 1.534 1.484) (end 1.534 -1.564) (layer F.SilkS) (width 0.127))
  (fp_line (start 1.534 -1.564) (end -1.236 -1.564) (layer F.SilkS) (width 0.127))
  (fp_line (start -1.236 -1.564) (end -1.514 -1.286) (layer F.SilkS) (width 0.127))
  (fp_line (start -1.514 -1.286) (end -1.514 1.484) (layer F.SilkS) (width 0.127))
  (fp_circle (center -1.006 -1.056) (end -0.752 -1.056) (layer F.SilkS) (width 0.127))
  (pad 5 smd rect (at -2.2 1) (size 1.016 0.254) (layers F.Cu F.Paste F.Mask)
    (solder_mask_margin 0.1016))
  (pad 4 smd rect (at -2.2 0.5) (size 1.016 0.254) (layers F.Cu F.Paste F.Mask)
    (solder_mask_margin 0.1016))
  (pad 3 smd rect (at -2.2 0) (size 1.016 0.254) (layers F.Cu F.Paste F.Mask)
    (solder_mask_margin 0.1016))
  (pad 2 smd rect (at -2.2 -0.5) (size 1.016 0.254) (layers F.Cu F.Paste F.Mask)
    (solder_mask_margin 0.1016))
  (pad 1 smd rect (at -2.2 -1) (size 1.016 0.254) (layers F.Cu F.Paste F.Mask)
    (solder_mask_margin 0.1016))
  (pad 10 smd rect (at 2.2 -1) (size 1.016 0.254) (layers F.Cu F.Paste F.Mask)
    (solder_mask_margin 0.1016))
  (pad 9 smd rect (at 2.2 -0.5) (size 1.016 0.254) (layers F.Cu F.Paste F.Mask)
    (solder_mask_margin 0.1016))
  (pad 8 smd rect (at 2.2 0) (size 1.016 0.254) (layers F.Cu F.Paste F.Mask)
    (solder_mask_margin 0.1016))
  (pad 7 smd rect (at 2.2 0.5) (size 1.016 0.254) (layers F.Cu F.Paste F.Mask)
    (solder_mask_margin 0.1016))
  (pad 6 smd rect (at 2.2 1) (size 1.016 0.254) (layers F.Cu F.Paste F.Mask)
    (solder_mask_margin 0.1016))
)
