(module SJ-CLOSE (layer F.Cu) (tedit 0)
  (fp_text reference 470MA_E (at -2.54 -1.27) (layer F.SilkS) hide
    (effects (font (size 1.2065 1.2065) (thickness 0.254)) (justify right top))
  )
  (fp_text value close (at -2.54 2.54 -180) (layer F.Fab)
    (effects (font (size 0.019 0.019) (thickness 0.00152)) (justify right top))
  )
  (fp_line (start 1.397 1.016) (end 0 1.016) (layer F.SilkS) (width 0.254))
  (fp_line (start 0 1.016) (end -1.397 1.016) (layer F.SilkS) (width 0.254))
  (fp_arc (start 1.397 -0.762) (end 1.397 -1.016) (angle 90) (layer F.SilkS) (width 0.254))
  (fp_arc (start -1.397 -0.762) (end -1.651 -0.762) (angle 90) (layer F.SilkS) (width 0.254))
  (fp_arc (start -1.397 0.762) (end -1.651 0.762) (angle -90) (layer F.SilkS) (width 0.254))
  (fp_arc (start 1.397 0.762) (end 1.397 1.016) (angle -90) (layer F.SilkS) (width 0.254))
  (fp_line (start 1.651 0.762) (end 1.651 -0.762) (layer F.SilkS) (width 0.254))
  (fp_line (start -1.651 0.762) (end -1.651 -0.762) (layer F.SilkS) (width 0.254))
  (fp_line (start -1.397 -1.016) (end 0 -1.016) (layer F.SilkS) (width 0.254))
  (fp_line (start 0 -1.016) (end 1.397 -1.016) (layer F.SilkS) (width 0.254))
  (fp_line (start 1.016 0) (end 1.524 0) (layer F.Fab) (width 0.254))
  (fp_line (start -1.016 0) (end -1.524 0) (layer F.Fab) (width 0.254))
  (fp_arc (start -0.254 0) (end -0.254 0.127) (angle 180) (layer F.Fab) (width 1.27))
  (fp_arc (start 0.254 0) (end 0.254 -0.127) (angle 180) (layer F.Fab) (width 1.27))
  (fp_line (start 0 -1.016) (end 0 -0.762) (layer F.SilkS) (width 0.254))
  (fp_line (start 0 0.762) (end 0 1.016) (layer F.SilkS) (width 0.254))
  (fp_poly (pts (xy -0.0762 0.9144) (xy 0.0762 0.9144) (xy 0.0762 -0.9144) (xy -0.0762 -0.9144)) (layer F.Mask) (width 0))
  (fp_poly (pts (xy -0.2032 0.381) (xy 0.2032 0.381) (xy 0.2032 -0.381) (xy -0.2032 -0.381)) (layer Dwgs.User) (width 0))
  (pad 1 smd rect (at -0.762 0) (size 1.1684 1.6002) (layers F.Cu F.Mask)
    (solder_mask_margin 0.1016))
  (pad 2 smd rect (at 0.762 0) (size 1.1684 1.6002) (layers F.Cu F.Mask)
    (solder_mask_margin 0.1016))
)
